{
    "swagger": "2.0",
    "info": {
        "contact": {}
    },
    "paths": {
        "/v1/cancel-reserve": {
            "post": {
                "produces": [
                    "application/json"
                ],
                "summary": "Отменить резерв товаров на складе",
                "parameters": [
                    {
                        "description": "Тело запроса",
                        "name": "requestBody",
                        "in": "body",
                        "required": true,
                        "schema": {
                            "$ref": "#/definitions/cancel_reserve.DtoIn"
                        }
                    }
                ],
                "responses": {
                    "200": {
                        "description": "OK"
                    }
                }
            }
        },
        "/v1/products": {
            "get": {
                "produces": [
                    "application/json"
                ],
                "summary": "Получить товары оставшиеся на складе",
                "parameters": [
                    {
                        "type": "string",
                        "description": "limit",
                        "name": "limit",
                        "in": "query"
                    },
                    {
                        "type": "string",
                        "description": "limit",
                        "name": "offset",
                        "in": "query"
                    }
                ],
                "responses": {
                    "200": {
                        "description": "OK",
                        "schema": {
                            "$ref": "#/definitions/products.DtoOut"
                        }
                    }
                }
            }
        },
        "/v1/reserve": {
            "post": {
                "produces": [
                    "application/json"
                ],
                "summary": "Зарезервировать товары на складе",
                "parameters": [
                    {
                        "description": "Тело запроса",
                        "name": "requestBody",
                        "in": "body",
                        "required": true,
                        "schema": {
                            "$ref": "#/definitions/reserve.DtoIn"
                        }
                    }
                ],
                "responses": {
                    "200": {
                        "description": "OK"
                    }
                }
            }
        }
    },
    "definitions": {
        "cancel_reserve.DtoIn": {
            "type": "object",
            "properties": {
                "product_codes": {
                    "type": "array",
                    "items": {
                        "type": "string"
                    }
                }
            }
        },
        "products.DtoOut": {
            "type": "object",
            "properties": {
                "items": {
                    "type": "array",
                    "items": {
                        "$ref": "#/definitions/products.Product"
                    }
                },
                "pagination": {
                    "$ref": "#/definitions/products.Pagination"
                }
            }
        },
        "products.Pagination": {
            "type": "object",
            "properties": {
                "limit": {
                    "type": "integer"
                },
                "offset": {
                    "type": "integer"
                },
                "total": {
                    "type": "integer"
                }
            }
        },
        "products.Product": {
            "type": "object",
            "properties": {
                "amount": {
                    "type": "integer"
                },
                "name": {
                    "type": "string"
                },
                "product_code": {
                    "type": "string"
                },
                "size": {
                    "type": "integer"
                }
            }
        },
        "reserve.DtoIn": {
            "type": "object",
            "properties": {
                "product_codes": {
                    "type": "array",
                    "items": {
                        "type": "string"
                    }
                }
            }
        }
    }
}